f_adder/simulation/qsim/f_adder.msim.vcd
$comment
	File created using the following command:
		vcd file f_adder.msim.vcd -direction
$end
$date
	Sat Oct 15 18:29:41 2022
$end
$version
	ModelSim Version 2020.1
$end
$timescale
	1ps
$end

$scope module f_adder_vhd_vec_tst $end
$var wire 1 ! ain $end
$var wire 1 " bin $end
$var wire 1 # cin $end
$var wire 1 $ cout $end
$var wire 1 % sum $end

$scope module i1 $end
$var wire 1 & gnd $end
$var wire 1 ' vcc $end
$var wire 1 ( unknown $end
$var wire 1 ) devoe $end
$var wire 1 * devclrn $end
$var wire 1 + devpor $end
$var wire 1 , ww_devoe $end
$var wire 1 - ww_devclrn $end
$var wire 1 . ww_devpor $end
$var wire 1 / ww_ain $end
$var wire 1 0 ww_bin $end
$var wire 1 1 ww_cin $end
$var wire 1 2 ww_cout $end
$var wire 1 3 ww_sum $end
$var wire 1 4 \~QUARTUS_CREATED_GND~I_combout\ $end
$var wire 1 5 \cin~input_o\ $end
$var wire 1 6 \ain~input_o\ $end
$var wire 1 7 \bin~input_o\ $end
$var wire 1 8 \u3|c~combout\ $end
$var wire 1 9 \u2|Mux0~0_combout\ $end
$var wire 1 : \ALT_INV_cin~input_o\ $end
$var wire 1 ; \ALT_INV_bin~input_o\ $end
$var wire 1 < \ALT_INV_ain~input_o\ $end
$upscope $end
$upscope $end
$enddefinitions $end
#0
$dumpvars
0!
0"
0#
0$
0%
0&
1'
x(
1)
1*
1+
1,
1-
1.
0/
00
01
02
03
x4
05
06
07
08
09
1:
1;
1<
$end
#60000
1#
11
15
0:
19
13
1%
#120000
0#
1"
01
10
17
05
1:
0;
#180000
1#
11
15
0:
18
09
03
12
0%
1$
#240000
0#
0"
1!
01
00
1/
16
07
05
1:
1;
0<
08
19
13
02
1%
0$
#300000
1#
11
15
0:
18
09
03
12
0%
1$
#360000
0#
1"
01
10
17
05
1:
0;
#430000
1#
11
15
0:
19
13
1%
#480000
0#
0"
0!
01
00
0/
06
07
05
1:
1;
1<
08
09
03
02
0%
0$
