mux21a/simulation/qsim/mux21a.msim.vcd
$comment
	File created using the following command:
		vcd file mux21a.msim.vcd -direction
$end
$date
	Sat Oct 15 12:46:07 2022
$end
$version
	ModelSim Version 2020.1
$end
$timescale
	1ps
$end

$scope module mux21a_vhd_vec_tst $end
$var wire 1 ! a $end
$var wire 1 " b $end
$var wire 1 # s $end
$var wire 1 $ y $end

$scope module i1 $end
$var wire 1 % gnd $end
$var wire 1 & vcc $end
$var wire 1 ' unknown $end
$var wire 1 ( devoe $end
$var wire 1 ) devclrn $end
$var wire 1 * devpor $end
$var wire 1 + ww_devoe $end
$var wire 1 , ww_devclrn $end
$var wire 1 - ww_devpor $end
$var wire 1 . ww_a $end
$var wire 1 / ww_b $end
$var wire 1 0 ww_s $end
$var wire 1 1 ww_y $end
$var wire 1 2 \~QUARTUS_CREATED_GND~I_combout\ $end
$var wire 1 3 \s~input_o\ $end
$var wire 1 4 \b~input_o\ $end
$var wire 1 5 \a~input_o\ $end
$var wire 1 6 \y~0_combout\ $end
$var wire 1 7 \ALT_INV_b~input_o\ $end
$var wire 1 8 \ALT_INV_s~input_o\ $end
$var wire 1 9 \ALT_INV_a~input_o\ $end
$upscope $end
$upscope $end
$enddefinitions $end
#0
$dumpvars
1!
1"
1#
1$
0%
1&
x'
1(
1)
1*
1+
1,
1-
1.
1/
10
11
x2
13
14
15
16
07
08
09
$end
#80000
0!
0.
05
19
#140000
1!
0"
0#
1.
0/
00
03
04
15
09
17
18
#200000
0!
1"
0.
1/
14
05
19
07
06
01
0$
#240000
1!
1.
15
09
16
11
1$
#320000
0!
0"
0.
0/
04
05
19
17
06
01
0$
#400000
1!
1.
15
09
16
11
1$
#500000
0!
0.
05
19
06
01
0$
